<?xml version="1.0" encoding="utf-8"?>
<!-- Generator: Adobe Illustrator 24.2.3, SVG Export Plug-In . SVG Version: 6.00 Build 0)  -->
<svg version="1.1" id="Capa_1" xmlns="http://www.w3.org/2000/svg" xmlns:xlink="http://www.w3.org/1999/xlink" x="0px" y="0px"
	 viewBox="0 0 100 18" style="enable-background:new 0 0 100 18;" xml:space="preserve">
<style type="text/css">
	.st0{fill:#FFFFFF;}
</style>
<path class="st0" d="M10.45,13.08c-0.33,0.3-0.77,0.45-1.33,0.45H5.84v-3.51h3.15c0.25,0,0.54,0.03,0.84,0.09
	c0.3,0.06,0.57,0.21,0.79,0.46s0.33,0.64,0.33,1.18C10.94,12.34,10.78,12.78,10.45,13.08z M5.84,5.04h3c0.43,0,0.77,0.12,1.03,0.36
	c0.26,0.24,0.39,0.62,0.39,1.14c0,0.44-0.14,0.77-0.42,1C9.56,7.76,9.25,7.88,8.9,7.88H5.84L5.84,5.04L5.84,5.04z M12.86,9.95
	c-0.3-0.46-0.68-0.83-1.13-1.09c-0.21-0.12-0.41-0.21-0.62-0.3c0.48-0.23,0.85-0.54,1.11-0.94c0.28-0.43,0.42-0.93,0.42-1.5
	c0-1.07-0.29-1.88-0.86-2.42c-0.57-0.55-1.44-0.82-2.6-0.82H4.59c-0.32,0-0.58,0.11-0.79,0.32C3.59,3.42,3.48,3.68,3.48,4v12.81
	c0,0.23,0.27,0.35,0.44,0.2l0.57-0.5c0.1-0.09,0.25-0.09,0.35,0l0.57,0.5c0.17,0.15,0.44,0.03,0.44-0.2v-1.19h3.28
	c0.45,0,0.92-0.05,1.41-0.16c0.48-0.11,0.94-0.3,1.36-0.58c0.43-0.28,0.77-0.67,1.03-1.18c0.26-0.51,0.39-1.16,0.39-1.96
	C13.31,11.02,13.16,10.42,12.86,9.95z"/>
<path class="st0" d="M7.74,0.36H4.08c-0.03,0-0.05,0-0.08,0.02C3.97,0.39,3.95,0.4,3.93,0.43L1.49,3.16
	C1.43,3.22,1.42,3.32,1.46,3.39C1.5,3.46,1.58,3.5,1.66,3.5l1.2-0.11l0.61,1.35c0.03,0.06,0.08,0.1,0.14,0.12
	c0.07,0.02,0.13,0,0.18-0.06c0.49-0.48,1.06-0.86,1.67-1.14c0.61-0.27,1.28-0.44,1.96-0.49c0.07,0,0.13-0.04,0.16-0.1
	C7.63,3.01,7.63,2.95,7.6,2.88L7,1.53l0.88-0.82c0.07-0.05,0.09-0.14,0.05-0.22S7.83,0.36,7.74,0.36z"/>
<path class="st0" d="M2,4.72c0.11,0,0.2,0.04,0.28,0.11c0.07,0.08,0.11,0.17,0.11,0.28S2.35,5.32,2.28,5.4
	C2.2,5.47,2.11,5.51,2,5.51S1.8,5.47,1.72,5.4C1.64,5.32,1.6,5.23,1.6,5.12s0.04-0.2,0.11-0.28C1.8,4.76,1.89,4.72,2,4.72z"/>
<path class="st0" d="M1.8,3.45H2.2v1.81H1.8V3.45z"/>
<path class="st0" d="M17.49,8.34c0.23-0.23,0.5-0.39,0.82-0.49c0.31-0.1,0.66-0.15,1.02-0.15c0.38,0,0.73,0.08,1.07,0.25
	s0.61,0.39,0.84,0.67c0.22,0.28,0.34,0.59,0.38,0.95V9.7h-4.77c0.03-0.15,0.06-0.29,0.11-0.42C17.08,8.89,17.26,8.57,17.49,8.34z
	 M23.59,11.24c0.22-0.18,0.33-0.42,0.34-0.71c0-0.65-0.12-1.27-0.37-1.85c-0.25-0.58-0.58-1.09-1.01-1.54
	c-0.42-0.44-0.91-0.79-1.46-1.05c-0.55-0.25-1.14-0.38-1.75-0.38c-0.8,0-1.56,0.2-2.27,0.62c-0.72,0.41-1.3,1-1.74,1.77
	c-0.44,0.77-0.66,1.7-0.66,2.79c0,0.93,0.2,1.77,0.61,2.51c0.41,0.74,0.99,1.32,1.75,1.75c0.76,0.43,1.66,0.64,2.69,0.64
	c0.61,0,1.2-0.1,1.77-0.3c0.57-0.2,1.02-0.43,1.33-0.7c0.34-0.27,0.51-0.57,0.51-0.89c0-0.24-0.09-0.46-0.27-0.64
	s-0.4-0.27-0.66-0.27c-0.2,0-0.4,0.05-0.62,0.16c-0.13,0.07-0.28,0.16-0.45,0.27s-0.38,0.19-0.65,0.26s-0.63,0.11-1.07,0.11
	c-0.48,0-0.95-0.12-1.38-0.36c-0.43-0.24-0.79-0.58-1.05-1.04c-0.16-0.27-0.27-0.56-0.34-0.9h6.01
	C23.12,11.51,23.38,11.42,23.59,11.24z"/>
<path class="st0" d="M30.18,5.71c0.69,0,1.3,0.07,1.81,0.22c0.52,0.14,0.92,0.35,1.2,0.61c0.29,0.26,0.43,0.58,0.43,0.94
	c0,0.24-0.07,0.47-0.22,0.68c-0.15,0.21-0.36,0.32-0.64,0.32c-0.2,0-0.36-0.03-0.48-0.08c-0.13-0.05-0.24-0.12-0.34-0.21
	c-0.09-0.09-0.21-0.16-0.34-0.24c-0.13-0.07-0.3-0.13-0.56-0.17c-0.25-0.04-0.43-0.06-0.55-0.06c-0.62,0-1.14,0.13-1.58,0.4
	c-0.43,0.27-0.76,0.63-0.99,1.09c-0.23,0.46-0.35,0.98-0.35,1.57c0,0.59,0.12,1.1,0.36,1.55c0.24,0.46,0.57,0.82,0.98,1.09
	c0.42,0.27,0.91,0.4,1.45,0.4c0.3,0,0.57-0.02,0.78-0.06c0.22-0.04,0.4-0.09,0.55-0.16c0.17-0.09,0.32-0.2,0.46-0.31
	s0.34-0.16,0.6-0.16c0.31,0,0.55,0.1,0.73,0.3s0.26,0.45,0.26,0.74c0,0.3-0.17,0.58-0.51,0.82c-0.34,0.25-0.79,0.45-1.34,0.6
	c-0.55,0.15-1.15,0.23-1.79,0.23c-0.96,0-1.79-0.22-2.49-0.66s-1.25-1.05-1.63-1.81c-0.38-0.77-0.57-1.62-0.57-2.57
	c0-0.99,0.21-1.87,0.61-2.63c0.41-0.75,0.97-1.35,1.7-1.78C28.42,5.92,29.24,5.71,30.18,5.71z"/>
<path class="st0" d="M42.04,12.31c-0.22,0.46-0.54,0.82-0.94,1.09c-0.4,0.27-0.87,0.4-1.4,0.4c-0.52,0-0.98-0.13-1.38-0.4
	c-0.4-0.27-0.71-0.63-0.94-1.09s-0.34-0.98-0.34-1.55c0-0.58,0.12-1.1,0.34-1.56c0.22-0.46,0.54-0.82,0.94-1.09
	c0.4-0.27,0.86-0.4,1.38-0.4c0.54,0,1,0.13,1.4,0.4c0.4,0.27,0.71,0.63,0.94,1.09c0.23,0.46,0.34,0.98,0.34,1.56
	C42.38,11.33,42.27,11.85,42.04,12.31z M44.16,6.02c-0.2-0.2-0.46-0.31-0.78-0.31S42.8,5.81,42.6,6.02
	c-0.21,0.21-0.31,0.48-0.31,0.79v0.03c-0.11-0.1-0.23-0.2-0.36-0.3c-0.32-0.24-0.7-0.44-1.14-0.6s-0.92-0.24-1.43-0.24
	c-0.82,0-1.56,0.21-2.22,0.64c-0.67,0.43-1.2,1.03-1.59,1.79s-0.59,1.63-0.59,2.63c0,0.98,0.2,1.85,0.59,2.61
	c0.39,0.75,0.93,1.35,1.61,1.78c0.68,0.43,1.43,0.64,2.27,0.64c0.46,0,0.89-0.07,1.29-0.23s0.73-0.34,1.03-0.56
	c0.22-0.16,0.4-0.32,0.55-0.49c0,0.31,0.1,0.57,0.31,0.77c0.2,0.21,0.46,0.32,0.78,0.32c0.31,0,0.57-0.11,0.78-0.32
	c0.21-0.21,0.31-0.47,0.31-0.79V6.82C44.48,6.49,44.37,6.22,44.16,6.02z"/>
<path class="st0" d="M53.2,12.31c-0.22,0.46-0.54,0.82-0.94,1.09c-0.4,0.27-0.87,0.4-1.4,0.4c-0.52,0-0.98-0.13-1.38-0.4
	c-0.4-0.27-0.71-0.63-0.94-1.09s-0.34-0.98-0.34-1.55c0-0.58,0.12-1.1,0.34-1.56c0.22-0.46,0.54-0.82,0.94-1.09
	c0.4-0.27,0.86-0.4,1.38-0.4c0.54,0,1,0.13,1.4,0.4c0.4,0.27,0.71,0.63,0.94,1.09c0.23,0.46,0.34,0.98,0.34,1.56
	C53.54,11.33,53.43,11.85,53.2,12.31z M55.32,2.47c-0.2-0.2-0.46-0.31-0.79-0.31c-0.32,0-0.57,0.11-0.78,0.32
	c-0.21,0.21-0.31,0.47-0.31,0.79v3.57c-0.11-0.1-0.23-0.2-0.36-0.3c-0.32-0.24-0.7-0.44-1.14-0.6s-0.92-0.24-1.44-0.24
	c-0.81,0-1.55,0.21-2.22,0.64c-0.67,0.43-1.2,1.03-1.59,1.79c-0.39,0.75-0.59,1.63-0.59,2.63c0,0.98,0.2,1.85,0.59,2.61
	c0.39,0.76,0.93,1.35,1.61,1.78c0.68,0.43,1.43,0.64,2.27,0.64c0.46,0,0.89-0.07,1.29-0.23c0.39-0.15,0.73-0.34,1.03-0.56
	c0.21-0.16,0.4-0.32,0.55-0.49c0,0.31,0.1,0.57,0.31,0.77c0.2,0.21,0.46,0.32,0.78,0.32c0.32,0,0.58-0.11,0.79-0.32
	c0.21-0.21,0.31-0.47,0.31-0.79V3.28C55.64,2.94,55.53,2.68,55.32,2.47z"/>
<path class="st0" d="M60.3,8.34c0.23-0.23,0.5-0.39,0.82-0.49c0.32-0.1,0.66-0.15,1.02-0.15c0.38,0,0.73,0.08,1.07,0.25
	s0.61,0.39,0.84,0.67c0.22,0.28,0.35,0.59,0.38,0.95V9.7h-4.77c0.03-0.15,0.06-0.29,0.11-0.42C59.88,8.89,60.06,8.57,60.3,8.34z
	 M66.39,11.24c0.22-0.18,0.33-0.42,0.35-0.71c0-0.65-0.13-1.27-0.37-1.85s-0.59-1.09-1.01-1.54c-0.42-0.44-0.91-0.79-1.46-1.05
	c-0.55-0.25-1.14-0.38-1.75-0.38c-0.8,0-1.56,0.2-2.28,0.62s-1.29,1-1.74,1.77c-0.45,0.77-0.67,1.7-0.67,2.79
	c0,0.93,0.21,1.77,0.61,2.51c0.41,0.74,0.99,1.32,1.75,1.75s1.66,0.64,2.69,0.64c0.61,0,1.2-0.1,1.77-0.3
	c0.57-0.2,1.01-0.43,1.33-0.7c0.34-0.27,0.51-0.57,0.51-0.89c0-0.24-0.09-0.46-0.26-0.64c-0.18-0.18-0.4-0.27-0.67-0.27
	c-0.19,0-0.4,0.05-0.62,0.16c-0.13,0.07-0.28,0.16-0.45,0.27c-0.16,0.11-0.38,0.19-0.65,0.26s-0.63,0.11-1.07,0.11
	c-0.48,0-0.94-0.12-1.38-0.36c-0.43-0.24-0.79-0.58-1.05-1.04c-0.16-0.27-0.27-0.56-0.34-0.9h6.01
	C65.92,11.51,66.17,11.42,66.39,11.24z"/>
<path class="st0" d="M87.22,14.51c0,0.31-0.11,0.58-0.31,0.79c-0.21,0.21-0.47,0.32-0.79,0.32s-0.58-0.11-0.79-0.32
	s-0.31-0.47-0.31-0.79V6.99c0-0.31,0.1-0.58,0.31-0.79c0.2-0.21,0.46-0.32,0.79-0.32c0.31,0,0.57,0.11,0.79,0.32
	c0.2,0.21,0.31,0.48,0.31,0.79V14.51z M86.11,4.71c-0.41,0-0.7-0.07-0.88-0.2s-0.26-0.37-0.26-0.71V3.45c0-0.35,0.09-0.59,0.28-0.72
	c0.19-0.13,0.48-0.19,0.86-0.19c0.43,0,0.73,0.07,0.89,0.2c0.17,0.13,0.26,0.37,0.26,0.71V3.8c0,0.35-0.09,0.59-0.27,0.72
	C86.81,4.64,86.52,4.71,86.11,4.71z"/>
<path class="st0" d="M96.19,12.31c-0.22,0.46-0.54,0.82-0.94,1.09c-0.4,0.27-0.86,0.4-1.4,0.4c-0.52,0-0.98-0.13-1.38-0.4
	c-0.4-0.27-0.71-0.63-0.94-1.09s-0.34-0.98-0.34-1.55c0-0.58,0.11-1.1,0.34-1.56c0.22-0.46,0.54-0.82,0.94-1.09
	c0.4-0.27,0.86-0.4,1.38-0.4c0.54,0,1,0.13,1.4,0.4c0.4,0.27,0.71,0.63,0.94,1.09c0.23,0.46,0.34,0.98,0.34,1.56
	C96.52,11.33,96.41,11.85,96.19,12.31z M98.3,6.02c-0.2-0.2-0.46-0.31-0.79-0.31c-0.31,0-0.57,0.11-0.79,0.32
	c-0.2,0.21-0.31,0.48-0.31,0.79v0.03c-0.11-0.1-0.22-0.2-0.36-0.3c-0.32-0.24-0.7-0.44-1.14-0.6s-0.92-0.24-1.44-0.24
	c-0.81,0-1.55,0.21-2.22,0.64c-0.66,0.43-1.2,1.03-1.59,1.79s-0.59,1.63-0.59,2.63c0,0.98,0.2,1.85,0.59,2.61
	c0.39,0.75,0.93,1.35,1.61,1.78c0.68,0.43,1.44,0.64,2.27,0.64c0.46,0,0.89-0.07,1.29-0.23s0.74-0.34,1.03-0.56
	c0.22-0.16,0.4-0.32,0.55-0.49c0,0.31,0.11,0.57,0.31,0.77c0.21,0.21,0.47,0.32,0.79,0.32s0.58-0.11,0.79-0.32
	c0.21-0.21,0.31-0.47,0.31-0.79V6.82C98.61,6.49,98.51,6.22,98.3,6.02z"/>
<path class="st0" d="M82.36,7.77c-0.17-0.63-0.48-1.13-0.94-1.5S80.3,5.7,79.43,5.7h-0.58c-0.79,0-1.49,0.17-2.1,0.51
	C76.4,6.4,76.11,6.63,75.85,6.9c-0.11-0.18-0.24-0.35-0.39-0.5C75,5.93,74.29,5.7,73.31,5.7h-0.53c-0.72,0-1.35,0.17-1.91,0.51
	c-0.2,0.12-0.38,0.27-0.55,0.42c-0.05-0.16-0.13-0.3-0.25-0.43c-0.21-0.21-0.47-0.32-0.79-0.32c-0.32,0-0.58,0.11-0.79,0.32
	C68.3,6.42,68.19,6.68,68.19,7v7.51c0,0.31,0.1,0.58,0.31,0.79c0.2,0.21,0.46,0.32,0.79,0.32c0.32,0,0.57-0.11,0.79-0.32
	c0.2-0.21,0.31-0.47,0.31-0.79V9.85c0-0.4,0.08-0.76,0.25-1.09c0.16-0.32,0.41-0.58,0.74-0.77s0.72-0.29,1.18-0.29
	c0.47,0,0.84,0.09,1.09,0.29s0.43,0.45,0.53,0.77c0.1,0.32,0.15,0.68,0.15,1.09v4.66c0,0.31,0.11,0.58,0.31,0.79
	c0.21,0.21,0.47,0.32,0.79,0.32s0.58-0.11,0.79-0.32c0.2-0.21,0.31-0.47,0.31-0.79V9.85c0-0.4,0.08-0.76,0.25-1.09
	c0.16-0.32,0.41-0.58,0.73-0.77s0.72-0.29,1.19-0.29c0.47,0,0.84,0.09,1.09,0.29c0.25,0.2,0.43,0.45,0.53,0.77
	c0.09,0.32,0.15,0.68,0.15,1.09v4.66c0,0.31,0.1,0.58,0.31,0.79c0.2,0.21,0.46,0.32,0.79,0.32c0.31,0,0.57-0.11,0.78-0.32
	c0.21-0.21,0.31-0.47,0.31-0.79V9.85C82.61,9.09,82.53,8.4,82.36,7.77z"/>
</svg>
